Análisis de Datos con R
…
Antimicrobianos <- Antimicrobianos[Antimicrobianos$Dosis < 1000, ]

#Eliminar datos errados de Dosis 2 (Dosis < 1 mg/kg)

Antimicrobianos <- Antimicrobianos[Antimicrobianos$Dosis > 1, ]

#Eliminar datos Nulos de Vía de Administración 

Antimicrobianos <- Antimicrobianos[Antimicrobianos$`Via de Administración` != "-", ]

#identificar valor faltante de Holding.

Antimicrobianos %>% filter(Holding == "-") %>% summarize(Empresa)

## # A tibble: 99 × 1
##    Empresa      
##    <fct>        
##  1 AQUACHILE SPA
##  2 AQUACHILE SPA
##  3 AQUACHILE SPA
##  4 AQUACHILE SPA
##  5 AQUACHILE SPA
##  6 AQUACHILE SPA
##  7 AQUACHILE SPA
##  8 AQUACHILE SPA
##  9 AQUACHILE SPA
## 10 AQUACHILE SPA
## # … with 89 more rows
…
# Principio activo por enfermedad según vía de administración.
Antimicrobianos %>% filter(Año == "2021") %>%  group_by(`Principio Activo`, `Via de Administración`, Enfermedad) %>% summarize("N" = n(), 
                                                               "Promedio" = mean(Dosis),
                                                               "Mediana" = median(Dosis),
                                                               "Máximo" = max(Dosis),
                                                               "Mínimo" = min(Dosis))

## `summarise()` has grouped output by 'Principio Activo', 'Via de
## Administración'. You can override using the `.groups` argument.

## # A tibble: 26 × 8
## # Groups:   Principio Activo, Via de Administración [7]
##    `Principio Activo` `Via de Adminis…` Enfermedad     N Promedio Mediana Máximo
##    <fct>              <fct>             <fct>      <int>    <dbl>   <dbl>  <dbl>
##  1 OTROS              Oral              Piscirick…     1     12.1    12.1   12.1
##  2 OTROS              Oral              Renibacte…    23     36.2    10    100  
##  3 OTROS              Oral              Tenacibac…    23     11.8    12.1   12.5
##  4 FLORFENICOL        Inmersión         Flavobact…     7     17.2    20     20.1
##  5 FLORFENICOL        Inmersión         Renibacte…     1     20      20     20  
##  6 FLORFENICOL        Inyectable        Piscirick…    72     33.8    30     40  
##  7 FLORFENICOL        Inyectable        Renibacte…     2     30      30     30  
##  8 FLORFENICOL        Inyectable        Tenacibac…     3     33.3    35     35  
##  9 FLORFENICOL        Oral              Enfermeda…     5     20      20     20  
## 10 FLORFENICOL        Oral              Flavobact…   450     19.9    20     30  
## # … with 16 more rows, and 1 more variable: Mínimo <dbl>

# Principio activo por especie según vía de administración.
Antimicrobianos %>% filter(Año == "2021") %>%  group_by(`Principio Activo`, Especie, `Via de Administración`) %>% summarize("N" = n(), 
                                                               "Promedio" = mean(Dosis),
                                                               "Mediana" = median(Dosis),
                                                               "Máximo" = max(Dosis),
                                                               "Mínimo" = min(Dosis))

## `summarise()` has grouped output by 'Principio Activo', 'Especie'. You can
## override using the `.groups` argument.

## # A tibble: 22 × 8
## # Groups:   Principio Activo, Especie [9]
##    `Principio Activo` Especie     `Via de Admini…`     N Promedio Mediana Máximo
##    <fct>              <fct>       <fct>            <int>    <dbl>   <dbl>  <dbl>
##  1 OTROS              Salmon Del… Oral                44     24.7    12.1  100  
##  2 OTROS              Salmon Pla… Oral                 3     10      10     10  
##  3 FLORFENICOL        Salmon Del… Inmersión            6     16.7    20     20  
##  4 FLORFENICOL        Salmon Del… Inyectable          30     29.3    30     35  
##  5 FLORFENICOL        Salmon Del… Oral              1486     18.2    20     33.9
##  6 FLORFENICOL        Salmon Pla… Inmersión            1     20.1    20.1   20.1
##  7 FLORFENICOL        Salmon Pla… Inyectable          44     36.6    40     40  
##  8 FLORFENICOL        Salmon Pla… Oral               118     20.3    20     30  
##  9 FLORFENICOL        Trucha Arc… Inmersión            1     20      20     20  
## 10 FLORFENICOL        Trucha Arc… Inyectable           3     33.3    35     35  
## # … with 12 more rows, and 1 more variable: Mínimo <dbl>

# Principio activo por Empresa (Holding) según vía de administración.
Antimicrobianos %>% filter(Año == "2021") %>%  group_by(`Principio Activo`, `Via de Administración`, Holding) %>%  arrange(`Principio Activo`) %>% summarize("N" = n(), "Promedio" = mean(Dosis),
                      "Mediana" = median(Dosis),
                    "Máximo" = max(Dosis),
                     "Mínimo" = min(Dosis)) 

## `summarise()` has grouped output by 'Principio Activo', 'Via de
## Administración'. You can override using the `.groups` argument.

## # A tibble: 102 × 8
## # Groups:   Principio Activo, Via de Administración [7]
##    `Principio Activo` `Via de Administra…` Holding     N Promedio Mediana Máximo
##    <fct>              <fct>                <fct>   <int>    <dbl>   <dbl>  <dbl>
##  1 OTROS              Oral                 EMPRES…     1     12.1    12.1   12.1
##  2 OTROS              Oral                 EMPRES…    41     15.2    12.1  100  
##  3 OTROS              Oral                 PISCIC…     3    100     100    100  
##  4 OTROS              Oral                 TROUTL…     2     90      90    100  
##  5 FLORFENICOL        Inmersión            AUSTRA…     2     20      20     20  
##  6 FLORFENICOL        Inmersión            BURGEM…     2     20      20     20  
##  7 FLORFENICOL        Inmersión            PISCIC…     2     10      10     10  
##  8 FLORFENICOL        Inmersión            SALMON…     1     20      20     20  
##  9 FLORFENICOL        Inmersión            SALMON…     1     20.1    20.1   20.1
## 10 FLORFENICOL        Inyectable           AQUAGE…     3     30      30     30  
## # … with 92 more rows, and 1 more variable: Mínimo <dbl>
…
