Clase 06 - Guía técnicas avanzadas para realizar EDA.
…
b) Importar y ordenar datos con gather(). - Cree un objeto llamado messy_salmon e importe dentro de este objeto la hoja 2 del set de datos salmon.xlsx. Use la función read_excel() de la librería readxl. Explore los datos don head() o View(). Note que las variables Sample y Family están adecuadamente ordenados para analizar con R. En cambio, las variables Triploid y Diploid no están adecuadamente ordenadas, ellas representan dos niveles del factor ploidia y contienen al peso de los peces.

## # A tibble: 6 × 4
##   Sample Family Diploid Triploid
##   <chr>   <dbl>   <dbl>    <dbl>
## 1 M100       19      41       NA
## 2 M1002       9      36       NA
## 3 M1006       9      38       NA
## 4 M1010       5      39       NA
## 5 M1016      19      29       NA
## 6 M102       19      39       NA

Use la función gather() del paquete tidyr para ordenar las columnas 3:4 en un solo factor llamado Ploidy, creando la variable Weight. Almacene la tabla en un nuevo objeto llamado tidy_salmon.

## # A tibble: 502 × 4
##    Sample Family Ploidy  Weight
##    <chr>   <dbl> <chr>    <dbl>
##  1 M100       19 Diploid     41
##  2 M1002       9 Diploid     36
##  3 M1006       9 Diploid     38
##  4 M1010       5 Diploid     39
##  5 M1016      19 Diploid     29
##  6 M102       19 Diploid     39
##  7 M1022      15 Diploid     38
##  8 M1032       5 Diploid     NA
##  9 M1036       1 Diploid     33
## 10 M1041       1 Diploid     44
## # … with 492 more rows
…
